com\ufes\valmiraguiar\pss\atv02\decorator\ComTituloEixoVertical.class
com\ufes\valmiraguiar\pss\atv02\Main.class
com\ufes\valmiraguiar\pss\atv02\view\MainView.class
com\ufes\valmiraguiar\pss\atv02\decorator\ComLegenda.class
com\ufes\valmiraguiar\pss\atv02\grafico\GraficoPessoaBarrasBuilder.class
com\ufes\valmiraguiar\pss\atv02\decorator\ComTituloEixoHorizontal.class
com\ufes\valmiraguiar\pss\atv02\model\Pessoa.class
com\ufes\valmiraguiar\pss\atv02\decorator\ComTitulo.class
com\ufes\valmiraguiar\pss\atv02\model\PessoaCollection.class
com\ufes\valmiraguiar\pss\atv02\decorator\ComRotulo.class
com\ufes\valmiraguiar\pss\atv02\FileUtils.class
com\ufes\valmiraguiar\pss\atv02\decorator\SemCorBarras.class
com\ufes\valmiraguiar\pss\atv02\decorator\GraficoPessoa.class
com\ufes\valmiraguiar\pss\atv02\view\MainView$1.class
com\ufes\valmiraguiar\pss\atv02\decorator\GraficoPessoaDecorator.class
com\ufes\valmiraguiar\pss\atv02\grafico\GraficoPessoaBarras.class
com\ufes\valmiraguiar\pss\atv02\presenter\MainPresenter.class
